<?xml version="1.0" encoding="utf-8"?>
<!-- Generator: Adobe Illustrator 23.1.0, SVG Export Plug-In . SVG Version: 6.00 Build 0)  -->
<svg version="1.1" id="Layer_1" xmlns="http://www.w3.org/2000/svg" xmlns:xlink="http://www.w3.org/1999/xlink" x="0px" y="0px"
	 viewBox="0 0 300 300" style="enable-background:new 0 0 300 300;" xml:space="preserve">
<style type="text/css">
	.st0{display:none;}
	.st1{fill:none;stroke:#000000;stroke-miterlimit:10;}
	.st2{fill:none;}
</style>
<title>FOOD DELIVERY-moped-delivery bike-takeaway-delivery-scooter</title>
<path d="M266,225l-20.6-65.6h3c1.6,0,3.1-0.9,3.9-2.2l12.7,6.4c0.7,0.3,1.4,0.5,2.1,0.5c0.9,0,1.7-0.2,2.5-0.7
	c1.4-0.9,2.2-2.4,2.2-4v-37.5c0-2.6-2.1-4.7-4.7-4.7c-0.7,0-1.4,0.2-2.1,0.5l-12.8,6.4c-0.8-1.3-2.3-2.2-3.9-2.2h-37.5
	c-2.6,0-4.7,2.1-4.7,4.7v4.7h-18.8c-2.6,0-4.7,2.1-4.7,4.7V150c0,2.6,2.1,4.7,4.7,4.7h18.8c0,2.6,2.1,4.7,4.7,4.7h4.7v60.9
	c0,7.8-6.3,14.1-14.1,14.1h-14.1v-56.3c0-7.8-6.3-14.1-14.1-14.1h-18.8c-7.8,0-14.1,6.3-14.1,14.1v4.7h-9.4v-51.6
	c0-2.6-2.1-4.7-4.7-4.7h-75c-2.6,0-4.7,2.1-4.7,4.7v51.6h-9.4v9.4h34.4l12.5,28.6c-3,7.3-4.6,15.1-4.7,22.9v23.4
	c0,2.6,2.1,4.7,4.7,4.7h14.5c2.7,15.3,17.3,25.5,32.6,22.9c11.7-2,20.8-11.2,22.9-22.9h75.8c2.7,15.3,17.3,25.5,32.6,22.9
	c11.7-2,20.8-11.2,22.9-22.9h5.1c2.6,0,4.7-2.1,4.7-4.7v-9.4C295.4,241,282.8,226.8,266,225z M192.2,145.3v-4.7h14.1v4.7H192.2z
	 M262.5,151.8l-9.4-4.7v-12.9l9.4-4.7V151.8z M215.6,131.3h28.1V150h-28.1V131.3z M154.7,173.4h18.8c2.6,0,4.7,2.1,4.7,4.7v4.7H150
	v-4.7C150,175.5,152.1,173.4,154.7,173.4z M121.9,135.9v9.4H56.3v-9.4H121.9z M56.3,154.7h65.6v28.1H56.3V154.7z M82.1,192.2h26.2
	c-7.4,4.6-13.7,10.8-18.5,18L82.1,192.2z M126.6,285.9c-8.5,0-16-5.8-18.1-14.1h36.2C142.5,280.1,135.1,285.9,126.6,285.9z
	 M223.1,262.5h-134v-18.8c0-28.5,23.1-51.6,51.6-51.6h37.5v46.9c0,2.6,2.1,4.7,4.7,4.7h18.8c12.9,0,23.4-10.5,23.4-23.4v-60.9h10.6
	l21.6,69L223.1,262.5z M257.8,285.9c-8.5,0-16-5.8-18.1-14.1h36.2C273.8,280.1,266.3,285.9,257.8,285.9z M285.9,262.5h-49.6
	l28.1-28.1c12.2,1,21.6,11.2,21.5,23.4V262.5z"/>
<rect x="121.9" y="234.4" width="37.5" height="9.4"/>
<rect x="121.9" y="215.6" width="37.5" height="9.4"/>
<path class="st0" d="M71.7,115.8c0.9,0.9,2.1,1.4,3.3,1.4c0.6,0,1.2-0.1,1.8-0.4c1.8-0.7,2.9-2.4,2.9-4.3V98.4h32.8
	c7.8,0,14.1-6.3,14.1-14.1V18.8c0-7.8-6.3-14.1-14.1-14.1H18.8C11,4.7,4.7,11,4.7,18.8v65.6c0,7.8,6.3,14.1,14.1,14.1h35.6
	L71.7,115.8z"/>
<path class="st0" d="M14.1,84.4V18.8c0-2.6,2.1-4.7,4.7-4.7h93.8c2.6,0,4.7,2.1,4.7,4.7v65.6c0,2.6-2.1,4.7-4.7,4.7H89.1v-29
	c5.6-2,9.4-7.3,9.4-13.2V23.4h-9.4v23.4c0,2.6-2.1,4.7-4.7,4.7s-4.7-2.1-4.7-4.7V23.4h-9.4v23.4c0,5.9,3.8,11.2,9.4,13.2v29H75
	c-2.6,0-4.7,2.1-4.7,4.7v7.5L59.6,90.4c-0.9-0.9-2.1-1.4-3.3-1.4h-4.7v-29c5.6-2,9.4-7.3,9.4-13.2v-9.4c0-7.8-6.3-14.1-14.1-14.1
	s-14.1,6.3-14.1,14.1v9.4c0,5.9,3.8,11.2,9.4,13.2v29H18.8C16.2,89.1,14.1,87,14.1,84.4z"/>
<path class="st0" d="M42.2,46.9v-9.4c0-2.6,2.1-4.7,4.7-4.7s4.7,2.1,4.7,4.7v9.4c0,2.6-2.1,4.7-4.7,4.7S42.2,49.5,42.2,46.9z"/>
<path class="st1" d="M51.6,89.1"/>
<path d="M69.2,74.6"/>
<path d="M65,78.6"/>
<path class="st0" d="M205.7,97.6h-9.4l-15-26.5l-3.8-38.9l16-4.4l17.8,1.6l31.8-0.2c0,0,13.7,1.6,13.7,3.1c0,1.6,5.6,26.5,5.6,27.9
	s-4.2,27-4.2,27l-15,10.5h-9.4H205.7z"/>
<path d="M126.6,60.9"/>
<rect x="55.9" y="20.1" class="st2" width="105.1" height="105.1"/>
<path d="M141.6,53.9l-5.4-5.4c-2.1-2.1-3.3-4.9-3.3-7.8v-7.7c0-6.1-4.9-11.1-11.1-11.1h-7.6c-2.9,0-5.8-1.2-7.8-3.3l-5.4-5.4
	c-4.4-4.4-11.3-4.4-15.7,0l-5.4,5.4c-2.1,2.1-4.9,3.3-7.8,3.3h-7.7c-6.1,0-11.1,4.9-11.1,11.1v7.6c0,2.9-1.2,5.8-3.3,7.8l-5.4,5.4
	c-4.4,4.4-4.4,11.3,0,15.7l5.4,5.4c2.1,2.1,3.3,4.9,3.3,7.8v7.7c0,6.1,4.9,11.1,11.1,11.1h7.6c2.9,0,5.8,1.2,7.8,3.3l5.4,5.4
	c4.4,4.4,11.3,4.4,15.7,0l5.4-5.4c2.1-2.1,4.9-3.3,7.8-3.3h7.7c6.1,0,11.1-4.9,11.1-11.1v-7.6c0-2.9,1.2-5.8,3.3-7.8l5.4-5.4
	C145.9,65.2,145.9,58.2,141.6,53.9z M79.7,40.9c3.9,0,7.1,3.2,7.1,7.1c0,3.9-3.2,7.1-7.1,7.1c-3.9,0-7.2-3.2-7.2-7.1
	C72.5,44,75.7,40.9,79.7,40.9z M81.8,79.3c-0.9,0.9-2,1.3-3,1.3s-2.3-0.4-3-1.3c-1.7-1.7-1.7-4.5,0-6.2l29.3-29.3
	c1.7-1.7,4.5-1.7,6.2,0c1.7,1.7,1.7,4.5,0,6.2L81.8,79.3z M106.9,82.3c-3.9,0-7.2-3.2-7.2-7.1s3.2-7.1,7.2-7.1
	c3.9,0,7.1,3.2,7.1,7.1S110.8,82.3,106.9,82.3z"/>
</svg>
